﻿{
  "dependencies": {
    "Microsoft.AspNet.SignalR.Client": "2.2.2",
    "Microsoft.Bcl.Build": "1.0.21",
    "Microsoft.Net.Http": "2.2.29",
    "Microsoft.NETCore.UniversalWindowsPlatform": "5.2.2",
    "Newtonsoft.Json": "10.0.3",
    "Xam.Plugin.Connectivity": "3.0.2",
    "Xam.Plugins.Settings": "3.0.1",
    "Xamarin.Forms": "2.3.4.224"
  },
  "frameworks": {
    "uap10.0.10586": {}
  },
  "runtimes": {
    "win10-arm": {},
    "win10-arm-aot": {},
    "win10-x86": {},
    "win10-x86-aot": {},
    "win10-x64": {},
    "win10-x64-aot": {}
  }
}