^C:\USERS\NAZAR\DESKTOP\ELEKS\С++\TASKSCHEDULER\TASKSCHEDULER\DEBUG\STDAFX.OBJ|C:\USERS\NAZAR\DESKTOP\ELEKS\С++\TASKSCHEDULER\TASKSCHEDULER\DEBUG\TASKSCHEDULER.OBJ
/OUT:"C:\USERS\NAZAR\DESKTOP\ELEKS\С++\TASKSCHEDULER\DEBUG\TASKSCHEDULER.EXE" /INCREMENTAL /NOLOGO KERNEL32.LIB USER32.LIB GDI32.LIB WINSPOOL.LIB COMDLG32.LIB ADVAPI32.LIB SHELL32.LIB OLE32.LIB OLEAUT32.LIB UUID.LIB ODBC32.LIB ODBCCP32.LIB /MANIFEST /MANIFESTUAC:"level='asInvoker' uiAccess='false'" /manifest:embed /DEBUG:FASTLINK /PDB:"C:\USERS\NAZAR\DESKTOP\ELEKS\С++\TASKSCHEDULER\DEBUG\TASKSCHEDULER.PDB" /SUBSYSTEM:CONSOLE /TLBID:1 /DYNAMICBASE /NXCOMPAT /IMPLIB:"C:\USERS\NAZAR\DESKTOP\ELEKS\С++\TASKSCHEDULER\DEBUG\TASKSCHEDULER.LIB" /MACHINE:X86 DEBUG\STDAFX.OBJDEBUG\TASKSCHEDULER.OBJ
^E:\ELEKS\С++\TASKSCHEDULER\TASKSCHEDULER\DEBUG\STDAFX.OBJ|E:\ELEKS\С++\TASKSCHEDULER\TASKSCHEDULER\DEBUG\TASKSCHEDULER.OBJ
/OUT:"E:\ELEKS\С++\TASKSCHEDULER\DEBUG\TASKSCHEDULER.EXE" /INCREMENTAL /NOLOGO KERNEL32.LIB USER32.LIB GDI32.LIB WINSPOOL.LIB COMDLG32.LIB ADVAPI32.LIB SHELL32.LIB OLE32.LIB OLEAUT32.LIB UUID.LIB ODBC32.LIB ODBCCP32.LIB /MANIFEST /MANIFESTUAC:"level='asInvoker' uiAccess='false'" /manifest:embed /DEBUG:FASTLINK /PDB:"E:\ELEKS\С++\TASKSCHEDULER\DEBUG\TASKSCHEDULER.PDB" /SUBSYSTEM:CONSOLE /TLBID:1 /DYNAMICBASE /NXCOMPAT /IMPLIB:"E:\ELEKS\С++\TASKSCHEDULER\DEBUG\TASKSCHEDULER.LIB" /MACHINE:X86 DEBUG\STDAFX.OBJDEBUG\TASKSCHEDULER.OBJ
^C:\USERS\НАЗАР\DOCUMENTS\GITHUB\XAMARIN_FORMS_MESSAGER\TASKSCHEDULER\TASKSCHEDULER\DEBUG\STDAFX.OBJ|C:\USERS\НАЗАР\DOCUMENTS\GITHUB\XAMARIN_FORMS_MESSAGER\TASKSCHEDULER\TASKSCHEDULER\DEBUG\TASKSCHEDULER.OBJ
/OUT:"C:\USERS\НАЗАР\DOCUMENTS\GITHUB\XAMARIN_FORMS_MESSAGER\TASKSCHEDULER\DEBUG\TASKSCHEDULER.EXE" /INCREMENTAL /NOLOGO KERNEL32.LIB USER32.LIB GDI32.LIB WINSPOOL.LIB COMDLG32.LIB ADVAPI32.LIB SHELL32.LIB OLE32.LIB OLEAUT32.LIB UUID.LIB ODBC32.LIB ODBCCP32.LIB /MANIFEST /MANIFESTUAC:"level='asInvoker' uiAccess='false'" /manifest:embed /DEBUG:FASTLINK /PDB:"C:\USERS\НАЗАР\DOCUMENTS\GITHUB\XAMARIN_FORMS_MESSAGER\TASKSCHEDULER\DEBUG\TASKSCHEDULER.PDB" /SUBSYSTEM:CONSOLE /TLBID:1 /DYNAMICBASE /NXCOMPAT /IMPLIB:"C:\USERS\НАЗАР\DOCUMENTS\GITHUB\XAMARIN_FORMS_MESSAGER\TASKSCHEDULER\DEBUG\TASKSCHEDULER.LIB" /MACHINE:X86 DEBUG\STDAFX.OBJDEBUG\TASKSCHEDULER.OBJ
